Mid-term project instructions
…
        modelname model df      aic      bic
1  mod1_exp_60_90     1 13 914.8451 948.1816
2 mod3_gaus_60_90     3 13 915.3208 948.6573
3  mod4_lin_60_90     4 13 915.5642 948.9007
4  mod2_sph_60_90     2 13 915.5642 948.9007

After comparing the models it is evident that the 0-5 cm depth was best fit by the exponential correlation structure model while all the other depths were best fit by the spherical correlation structure model. The chunk below shows the codes to check the linear model assumptions of the best fit model for depths 0-5 cm.

library(broom.mixed)
mod1_exp_resid_0_5<- augment(mod1_exp_0_5) %>%
  mutate(.stdresid=resid(mod1_exp_0_5, type="pearson", scaled=T))
mod1_exp_resid_0_5

# A tibble: 105 × 15
   x0_5_loi_g_kg x5_10_loi_g_kg x10_20_loi_g_kg x20_40_loi_g_kg x40_60_loi_g_kg
           <dbl>          <dbl>           <dbl>           <dbl>           <dbl>
 1         120.            83.7            73.4            83.7            91.9
 2         109.            75.6            62.4            58.7            69.6
 3         107.            74.0            66.1            66.4            81.2
 4         123.            80.8            72.1            77.7            96.0
 5         108.            75.0            66.0            64.0            65.3
 6         106.            86.8            83.6            87.1           102. 
 7         110.            78.9            72.4            65.5            72.4
 8          94.2           74.0            68.8            61.2            63.9
 9         110.            83.4            66.1            70.7            86.1
10         106.            69.2            63.6           104.             95.0
# ℹ 95 more rows
# ℹ 10 more variables: x60_90_loi_g_kg <dbl>, SDT <fct>, FL <fct>, X <dbl>,
#   Y <dbl>, geometry <POINT [m]>, .fitted <dbl>, .resid <dbl>, .fixed <dbl>,
#   .stdresid <dbl>
…
Results of the Anova shows no significance for fertilizer legacy, soil drainage type, and the interaction. Hence we have not made comparison of the means for the groups individually of with interaction.

In the following chunk, we check the linear model assumptions of the best fit model which was the spherical correlation structure model for 10-20 cm depth.

mod2_sph_resid_10_20<- augment(mod2_sph_10_20) %>%
  mutate(.stdresid=resid(mod2_sph_10_20, type="pearson", scaled=T))
mod2_sph_resid_10_20

# A tibble: 105 × 15
   x0_5_loi_g_kg x5_10_loi_g_kg x10_20_loi_g_kg x20_40_loi_g_kg x40_60_loi_g_kg
           <dbl>          <dbl>           <dbl>           <dbl>           <dbl>
 1         120.            83.7            73.4            83.7            91.9
 2         109.            75.6            62.4            58.7            69.6
 3         107.            74.0            66.1            66.4            81.2
 4         123.            80.8            72.1            77.7            96.0
 5         108.            75.0            66.0            64.0            65.3
 6         106.            86.8            83.6            87.1           102. 
 7         110.            78.9            72.4            65.5            72.4
 8          94.2           74.0            68.8            61.2            63.9
 9         110.            83.4            66.1            70.7            86.1
10         106.            69.2            63.6           104.             95.0
# ℹ 95 more rows
# ℹ 10 more variables: x60_90_loi_g_kg <dbl>, SDT <fct>, FL <fct>, X <dbl>,
#   Y <dbl>, geometry <POINT [m]>, .fitted <dbl>, .resid <dbl>, .fixed <dbl>,
#   .stdresid <dbl>
…
sph_10_20_XY_means <- data_dfw %>%
  group_by(X, Y) %>%
  summarise(mean_loi_10_20 = mean(x10_20_loi_g_kg ))

`summarise()` has grouped output by 'X'. You can override using the `.groups`
argument.

sph_10_20_XY_means

Simple feature collection with 105 features and 3 fields
Geometry type: POINT
Dimension:     XY
Bounding box:  xmin: 269598.6 ymin: 3700276 xmax: 270001.3 ymax: 3700676
Projected CRS: WGS 84 / UTM zone 17N
# A tibble: 105 × 4
# Groups:   X [105]
         X        Y mean_loi_10_20           geometry
     <dbl>    <dbl>          <dbl>        <POINT [m]>
 1 269599. 3700522.           63.6 (269598.6 3700522)
 2 269610. 3700499.           66.0 (269610.1 3700499)
 3 269613. 3700532.           63.6 (269612.5 3700532)
 4 269622. 3700479.           73.4 (269621.8 3700479)
 5 269627. 3700512.           83.6 (269626.9 3700512)
 6 269632. 3700546.           64.9 (269632.1 3700546)
 7 269646. 3700527.           72.4 (269646.4 3700527)
 8 269661. 3700508.           62.4 (269660.8 3700508)
 9 269666. 3700542.           68.8   (269666 3700542)
10 269674. 3700585.           67.4 (269674.4 3700585)
# ℹ 95 more rows
…
